{
  "type": "service_account",
  "project_id": "ip-cluedo",
  "private_key_id": "8f9cb3e4765bd5c6f7ab2d2602c3da6df2d51160",
  "private_key": "-----BEGIN PRIVATE KEY-----\nMIIEvAIBADANBgkqhkiG9w0BAQEFAASCBKYwggSiAgEAAoIBAQCNR6vDpEgeollp\nPpvs4meP+9Sam5Tdj5932z6AKKK+q0jOVI2fEa0FFeel3dwrVao81N0mCctuRZvV\nP2fulX7REmiiKE1TGXehdqWbdG/cZ9G7aCFv1a1qCx5ZUaIuPwjvywwxz/TijG7z\nSqqL1Cudrxt5To4hGNjZYs9ex1VVmU6ZAa4Q0Z9XskEr4x2L8dhMBqc0W3SSLJ/K\ndH4xmC/Hz6Aey81dcjQ1DQYf+RFT2UxoIkpU9ot6oHf0Y5DbZMwEZF/XkyfJHkRa\nWoqMwuOFPb9svirFwkf3ZqmL16jVeh/73DfBnz17QTXbLcvtwe7aSIt/lmMzZya+\nCjvqPpeHAgMBAAECggEAFCHJ6U461AQIygADd8fdamhAKACSlS3sU0fZNKmrDeYv\nhkNd458WW3qpxfotmmPnJyr4EShlJji3bOBPqZurn2mdomSBfEgimCNllEI31x2u\nMSPfW+XZg8UY1TErnfvFL2fCPEOTdEhUXnPd20tnzwekWm67acj2IagRv8JCN+Oz\nUD70Cq2BeAP1cNC4Y8TeRe3x1+ue72CP64cB5T/RO8+7iRfzf/v70Xlnqxg+CVSv\nuDPXXXHotQbqki0b6yHfHcZtIIp97gP0HvHXxK6VjDJDndPcaNv/dbq9OmIqWby8\nCuzsPvUF+FiApHrk07NaJp4o4Io+5fwKXMjMUxn32QKBgQDF1J5EVYN+EM+gm5I9\nlK2koBecPd2BwB7Y2fbyNTQrSS6ItdPgmi1gZAzBo8KXNpj0FFBFAkjGRPvmOwfV\nIYKcS7Qi8zYaGvyGguNnyzPCVdtAeCJ7k2HQQ1koY/4b5Mb25bbLZs53vuC7cO+d\ne41bSDRT4hNenRjweHEshPWTeQKBgQC20kwhyetWEEEZyaKsJvKjvTdEXj+8RRXl\nkNY24trRoccI0CiGRinhwJDVBr1E9/3kMXUPEcI4bPnbED3bEfX4qzDzc1Rmq3sG\nTyYj0xIPCh4/qrbJ6vhS2allQW7eY8eHhcCReqEfWu5YztBA+EGepDjYTlPhH3OW\npSAyIBfC/wKBgHZKSxRLGaQAw1WikFAYHbgpLdTzvQY/bXJ26k0rePVE/fkq1/Ud\n23IegO4sUEeAkvanStPoqME9MG4a7/UF44Y3Ug/v43K6njKEAxvmCh3ynnYvH1dK\n6hrQmngnSiM9qaap9qIq59v8G36Y6f39iamCRB/AN5rETsxDCFD5c6npAoGAKz0Z\nnHQxIK2/d+Xkf2rGwEskIxtXX6PHRgA3acvFjQcCF+eDbh5yEV6F4pwxb3pnpey8\njs/Ya5f6kAELYCCjWCjE7w87yvyLoDZgAuEMyFnQRaaOjLrx+EZadgQ/wIFA06Ci\npsWmDdBnxsFDJ9qPSoH0n9QGqpvRrrNnJfPJKukCgYAdueF7QM3WIYIr2eo350zm\naHrIpJGm+q3tE8Zy7VonVG4sUI5z5hPNZLywr+wgNHknM+s9gV+OvdCGnwLfS/iQ\nDDSI3W91IjfDu6cQqqzlsmq8fO1erixvUaNQljbfV9jDkd2dPMRxzPUFIpuR7oTv\nxLgV93GYcFyqTtaijJNBjA==\n-----END PRIVATE KEY-----\n",
  "client_email": "1084472425102-compute@developer.gserviceaccount.com",
  "client_id": "112088687203894116147",
  "auth_uri": "https://accounts.google.com/o/oauth2/auth",
  "token_uri": "https://oauth2.googleapis.com/token",
  "auth_provider_x509_cert_url": "https://www.googleapis.com/oauth2/v1/certs",
  "client_x509_cert_url": "https://www.googleapis.com/robot/v1/metadata/x509/1084472425102-compute%40developer.gserviceaccount.com"
}
